<svg width="222" height="78" viewBox="0 0 222 78" fill="none" xmlns="http://www.w3.org/2000/svg">
<path d="M60.8942 76.5507V63.1157H55.6641V59.5527H70.3411V63.1157H65.111V76.5507H60.8942Z" fill="url(#paint0_radial_1488_346)"/>
<path d="M76.0312 76.5507V59.5527H86.8446V63.1157H80.2611V66.2081H85.4913V69.7711H80.2611V72.9811H87.1845V76.5507H76.0312Z" fill="url(#paint1_radial_1488_346)"/>
<path d="M93.7773 76.5507V59.5527H97.9941V66.0904H99.7397L103.303 59.5527H107.833L103.192 67.679V67.7313L108.108 76.5507H103.388L99.7462 69.6534H98.0072V76.5507H93.7773Z" fill="url(#paint2_radial_1488_346)"/>
<path d="M114.027 76.5507V59.5527H118.329L123.095 67.4764C123.252 67.8294 123.448 68.2478 123.677 68.7381L124.259 69.9541L124.475 70.4118H124.56C124.435 69.1892 124.37 68.2217 124.37 67.5025V59.5527H128.587V76.5507H124.344L119.532 68.627C119.293 68.2313 119.074 67.8232 118.878 67.4045C118.643 66.9141 118.453 66.5088 118.303 66.1885L118.087 65.7308H118.035C118.149 66.6945 118.215 67.6633 118.231 68.6335V76.5507H114.027Z" fill="url(#paint3_radial_1488_346)"/>
<path d="M135.03 67.9416C135.005 66.7903 135.22 65.6465 135.661 64.5828C136.102 63.5192 136.76 62.559 137.593 61.7635C138.446 60.9365 139.457 60.2893 140.566 59.8603C141.674 59.4313 142.857 59.2293 144.045 59.2661C145.232 59.2287 146.415 59.4305 147.522 59.8595C148.63 60.2886 149.64 60.9361 150.491 61.7635C151.326 62.5577 151.986 63.5175 152.428 64.5813C152.871 65.6452 153.086 66.7897 153.061 67.9416C153.09 69.1182 152.877 70.2883 152.435 71.3792C151.993 72.4701 151.331 73.4585 150.491 74.2831C149.647 75.1243 148.64 75.7843 147.531 76.2227C146.423 76.6611 145.237 76.8687 144.045 76.8328C142.853 76.8681 141.666 76.6602 140.557 76.2218C139.447 75.7835 138.439 75.1239 137.593 74.2831C136.755 73.4572 136.095 72.4684 135.655 71.3778C135.214 70.2871 135.001 69.1176 135.03 67.9416ZM139.391 67.9416C139.351 69.2813 139.837 70.5833 140.744 71.57C141.156 72.0378 141.664 72.4109 142.234 72.6637C142.804 72.9164 143.422 73.0429 144.045 73.0344C144.663 73.0378 145.275 72.9088 145.838 72.6562C146.402 72.4036 146.905 72.0333 147.314 71.57C148.221 70.5833 148.707 69.2813 148.667 67.9416C148.684 67.303 148.573 66.6676 148.34 66.0726C148.108 65.4777 147.759 64.9351 147.314 64.4766C146.897 64.0283 146.391 63.6718 145.828 63.4298C145.265 63.1878 144.658 63.0656 144.045 63.071C143.427 63.0606 142.814 63.1804 142.245 63.4225C141.676 63.6647 141.165 64.0239 140.744 64.4766C140.299 64.9351 139.95 65.4777 139.718 66.0726C139.485 66.6676 139.374 67.303 139.391 67.9416Z" fill="url(#paint4_radial_1488_346)"/>
<path d="M163.338 76.5507L157.238 59.5527H161.815L164.855 69.2285C164.946 69.5423 165.051 69.928 165.168 70.3791C165.286 70.8302 165.365 71.2094 165.43 71.5101L165.502 71.9612H165.554C165.717 71.038 165.936 70.1255 166.208 69.2285L169.294 59.5527H173.805L167.725 76.5507H163.338Z" fill="url(#paint5_radial_1488_346)"/>
<path d="M188.177 76.5507L187.118 72.9811H181.751L180.751 76.5507H176.547L182.274 59.5527H186.85L192.518 76.5507H188.177ZM184.66 63.4296H184.608C184.351 64.663 184.115 65.6371 183.902 66.3519L182.83 69.6207H186.314L185.366 66.3127L184.66 63.4296Z" fill="url(#paint6_radial_1488_346)"/>
<path d="M196.898 74.4134L199.115 71.2491C199.259 71.3733 199.461 71.5368 199.716 71.7329C200.176 72.0479 200.669 72.3111 201.187 72.5174C201.827 72.8243 202.524 72.9915 203.233 73.0078C203.691 73.0276 204.144 72.9164 204.541 72.6874C204.715 72.5818 204.857 72.4301 204.951 72.2489C205.044 72.0678 205.086 71.8643 205.071 71.661C205.05 71.4809 204.987 71.3084 204.885 71.1581C204.784 71.0079 204.648 70.8843 204.489 70.798C204.042 70.4943 203.559 70.2483 203.05 70.0658C202.415 69.831 201.794 69.5625 201.187 69.2617C200.543 68.9556 199.921 68.6062 199.324 68.2157C198.732 67.8241 198.24 67.3003 197.886 66.6858C197.496 66.0154 197.297 65.2513 197.31 64.4761C197.291 63.7573 197.439 63.0438 197.742 62.3915C198.044 61.7393 198.494 61.1661 199.056 60.717C200.286 59.7265 201.831 59.2114 203.41 59.2656C204.437 59.255 205.459 59.4208 206.43 59.7559C207.134 59.962 207.798 60.287 208.392 60.717L208.974 61.1942L207.189 64.5938C207.058 64.4826 206.881 64.3453 206.646 64.1754C206.215 63.9179 205.762 63.6991 205.293 63.5216C204.688 63.2595 204.037 63.1195 203.377 63.1097C202.921 63.0941 202.469 63.2026 202.07 63.4235C201.9 63.514 201.76 63.6501 201.664 63.8166C201.568 63.983 201.52 64.173 201.527 64.365C201.527 64.7245 201.802 65.0187 202.357 65.3325C202.993 65.6569 203.648 65.9428 204.319 66.189C205.096 66.4776 205.854 66.8161 206.587 67.2023C207.353 67.6077 208.008 68.1933 208.496 68.9086C209.029 69.6916 209.302 70.6227 209.274 71.5695C209.286 72.2745 209.146 72.9738 208.864 73.6201C208.582 74.2664 208.165 74.8446 207.64 75.3156C206.414 76.3818 204.823 76.9304 203.201 76.8454C202.463 76.8493 201.728 76.7659 201.011 76.5969C200.397 76.4677 199.802 76.2635 199.239 75.9889C198.802 75.7779 198.378 75.5399 197.971 75.2763C197.68 75.1051 197.413 74.8987 197.173 74.6618L196.898 74.4134Z" fill="url(#paint7_radial_1488_346)"/>
<path d="M215.727 76.5507V59.5527H219.943V76.5507H215.727Z" fill="url(#paint8_radial_1488_346)"/>
<path d="M77.9017 25.1382C80.3272 22.9285 81.4844 19.6204 81.4844 16.1228C81.4844 9.23863 78.6863 3.53125 67.1865 3.53125H55.2422V50.7005H66.8138C75.3651 50.7005 82.7135 48.0528 82.6808 36.5661C82.6808 32.0028 81.3732 27.8841 77.9017 25.1382ZM64.9506 12.0629H67.1146C70.1023 12.0629 71.3314 13.9784 71.3314 16.7766C71.3314 19.5747 70.3638 22.2943 66.925 22.2943H64.9637L64.9506 12.0629ZM67.4872 42.1362H64.9114V30.1265H67.3761C69.8408 30.1265 72.4166 31.3425 72.3774 36.0496C72.3382 40.7567 70.5011 42.195 67.4872 42.195V42.1362Z" fill="url(#paint9_linear_1488_346)"/>
<path d="M107.408 3.5625L95.8359 50.7514H105.584L108.382 39.5589H117.822L120.62 50.7514H131.224L119.018 3.5625H107.408ZM109.912 30.9815L113.01 11.3685L116.22 30.9815H109.912Z" fill="url(#paint10_linear_1488_346)"/>
<path d="M172.695 17.7244C172.695 7.91795 167.693 3.55078 157.952 3.55078H146.008V50.7396H155.677V33.4737C156.533 33.4737 157.39 33.4737 158.253 33.4018L162.77 50.7396H174.152L166.961 30.7867C170.459 28.5051 172.695 24.4844 172.695 17.7244ZM155.697 25.0074V12.3113H158.05C160.959 12.2393 162.496 14.1549 162.496 18.5351C162.509 23.8698 160.227 25.0466 155.71 25.0074H155.697Z" fill="url(#paint11_linear_1488_346)"/>
<path d="M209.789 3.5625H198.185L186.613 50.7514H196.354L199.153 39.5589H208.599L211.398 50.7514H221.995L209.789 3.5625ZM200.637 30.9815L203.735 11.3685L206.945 30.9815H200.637Z" fill="url(#paint12_linear_1488_346)"/>
<path d="M19.6797 50.1709L26.8973 54.4923L19.6797 58.6372V77.5899L40.5152 62.6513V46.6667L19.6797 31.1855V50.1709Z" fill="url(#paint13_linear_1488_346)"/>
<path d="M0.621094 0.949219V66.6266L16.7887 77.5903L16.7495 10.2066L0.621094 0.949219Z" fill="url(#paint14_linear_1488_346)"/>
<path d="M19.6797 58.4665L40.5152 46.666V62.6506L19.6797 77.5892V58.4665Z" fill="url(#paint15_linear_1488_346)"/>
<defs>
<radialGradient id="paint0_radial_1488_346" cx="0" cy="0" r="1" gradientUnits="userSpaceOnUse" gradientTransform="translate(-225.662 105.016) scale(67.6944 67.0241)">
<stop offset="1" stop-color="#E6C31E"/>
</radialGradient>
<radialGradient id="paint1_radial_1488_346" cx="0" cy="0" r="1" gradientUnits="userSpaceOnUse" gradientTransform="translate(-225.666 105.016) scale(67.6944 67.0241)">
<stop offset="1" stop-color="#E8C523"/>
</radialGradient>
<radialGradient id="paint2_radial_1488_346" cx="0" cy="0" r="1" gradientUnits="userSpaceOnUse" gradientTransform="translate(-225.663 105.016) scale(67.6943 67.0241)">
<stop offset="1" stop-color="#E9C727"/>
</radialGradient>
<radialGradient id="paint3_radial_1488_346" cx="0" cy="0" r="1" gradientUnits="userSpaceOnUse" gradientTransform="translate(-225.667 105.016) scale(67.6944 67.0241)">
<stop offset="1" stop-color="#E6C21C"/>
</radialGradient>
<radialGradient id="paint4_radial_1488_346" cx="0" cy="0" r="1" gradientUnits="userSpaceOnUse" gradientTransform="translate(-225.664 105.017) scale(67.6944 67.0241)">
<stop offset="1" stop-color="#E6C21C"/>
</radialGradient>
<radialGradient id="paint5_radial_1488_346" cx="0" cy="0" r="1" gradientUnits="userSpaceOnUse" gradientTransform="translate(-225.663 105.016) scale(67.6944 67.0241)">
<stop offset="1" stop-color="#E8C522"/>
</radialGradient>
<radialGradient id="paint6_radial_1488_346" cx="0" cy="0" r="1" gradientUnits="userSpaceOnUse" gradientTransform="translate(-225.667 105.016) scale(67.6944 67.0241)">
<stop offset="1" stop-color="#E6C21C"/>
</radialGradient>
<radialGradient id="paint7_radial_1488_346" cx="0" cy="0" r="1" gradientUnits="userSpaceOnUse" gradientTransform="translate(-225.661 105.016) scale(67.6944 67.0241)">
<stop offset="1" stop-color="#E6C21C"/>
</radialGradient>
<radialGradient id="paint8_radial_1488_346" cx="0" cy="0" r="1" gradientUnits="userSpaceOnUse" gradientTransform="translate(-225.662 105.016) scale(67.6944 67.0241)">
<stop offset="1" stop-color="#EAC727"/>
</radialGradient>
<linearGradient id="paint9_linear_1488_346" x1="69.0759" y1="4.53805" x2="68.7359" y2="50.0664" gradientUnits="userSpaceOnUse">
<stop stop-color="#F9D950"/>
<stop offset="0.37" stop-color="#F8D84E"/>
<stop offset="0.5" stop-color="#F6D547"/>
<stop offset="0.59" stop-color="#F2D03C"/>
<stop offset="0.67" stop-color="#EBC92B"/>
<stop offset="0.71" stop-color="#E6C21C"/>
</linearGradient>
<linearGradient id="paint10_linear_1488_346" x1="112.749" y1="4.69352" x2="113.501" y2="49.1104" gradientUnits="userSpaceOnUse">
<stop stop-color="#F9D950"/>
<stop offset="0.37" stop-color="#F8D84E"/>
<stop offset="0.5" stop-color="#F6D547"/>
<stop offset="0.59" stop-color="#F2D03C"/>
<stop offset="0.67" stop-color="#EBC92B"/>
<stop offset="0.71" stop-color="#E6C21C"/>
</linearGradient>
<linearGradient id="paint11_linear_1488_346" x1="159.567" y1="6.0874" x2="160.057" y2="48.6868" gradientUnits="userSpaceOnUse">
<stop stop-color="#F9D950"/>
<stop offset="0.37" stop-color="#F8D84E"/>
<stop offset="0.5" stop-color="#F6D547"/>
<stop offset="0.59" stop-color="#F2D03C"/>
<stop offset="0.67" stop-color="#EBC92B"/>
<stop offset="0.71" stop-color="#E6C21C"/>
</linearGradient>
<linearGradient id="paint12_linear_1488_346" x1="204.625" y1="6.91632" x2="204.324" y2="48.3782" gradientUnits="userSpaceOnUse">
<stop stop-color="#F9D950"/>
<stop offset="0.37" stop-color="#F8D84E"/>
<stop offset="0.5" stop-color="#F6D547"/>
<stop offset="0.59" stop-color="#F2D03C"/>
<stop offset="0.67" stop-color="#EBC92B"/>
<stop offset="0.71" stop-color="#E6C21C"/>
</linearGradient>
<linearGradient id="paint13_linear_1488_346" x1="19.6797" y1="54.3877" x2="40.5152" y2="54.3877" gradientUnits="userSpaceOnUse">
<stop offset="0.01" stop-color="#F9D950"/>
<stop offset="0.19" stop-color="#F7D649"/>
<stop offset="0.45" stop-color="#F0CE36"/>
<stop offset="0.71" stop-color="#E6C21C"/>
</linearGradient>
<linearGradient id="paint14_linear_1488_346" x1="7.71446" y1="71.1245" x2="8.86509" y2="34.2063" gradientUnits="userSpaceOnUse">
<stop offset="0.01" stop-color="#F9D950"/>
<stop offset="0.19" stop-color="#F7D649"/>
<stop offset="0.45" stop-color="#F0CE36"/>
<stop offset="0.71" stop-color="#E6C21C"/>
</linearGradient>
<linearGradient id="paint15_linear_1488_346" x1="30.0615" y1="51.2489" x2="30.1269" y2="70.8815" gradientUnits="userSpaceOnUse">
<stop offset="0.01" stop-color="#F9D950"/>
<stop offset="0.19" stop-color="#F7D649"/>
<stop offset="0.45" stop-color="#F0CE36"/>
<stop offset="0.71" stop-color="#E6C21C"/>
</linearGradient>
</defs>
</svg>
