<svg width="267" height="53" viewBox="0 0 267 53" fill="none" xmlns="http://www.w3.org/2000/svg">
<path d="M26.7755 0C27.3719 0.198921 43.4798 0 43.4798 0L17.6277 25.8536L44.7725 53H26.7755L1.82422 25.2403L26.7755 0Z" fill="#46BEEE"/>
<path d="M21.3299 10.9658L4.78499 28.4633C10.5003 34.8148 16.2156 41.1662 21.931 47.5175L2.55382 47.3538C2.06396 47.2279 1.4751 46.9876 0.985238 46.4985C0.985238 46.4985 0.338007 45.8519 0.0968812 44.7846C-0.245009 43.2705 0.338009 30.912 1.5298 13.9918C1.57676 13.7094 1.78996 12.6333 2.77718 11.8383C3.52302 11.2375 4.31556 11.1154 4.64273 11.0834L21.3299 10.9658Z" fill="#3D73B9"/>
<path d="M46.5975 24.6719C46.5558 33.8098 46.5142 42.9477 46.4725 52.0857L32.8906 37.7988L46.5975 24.6719Z" fill="#E02D3C"/>
<path d="M71.01 16.3608L71.3625 16.3622C73.6191 16.3715 74.2518 16.5426 74.2462 17.0201L74.168 23.7326L74.5598 23.3972C77.4089 20.9653 79.5153 18.7269 81.0886 16.8515C81.4102 16.4877 81.658 16.4045 83.8087 16.4133L84.1966 16.4149C86.7704 16.4255 87.1217 16.5393 86.7978 17.0997C85.6826 19.005 83.2536 21.6915 79.1596 25.0451L86.9322 35.8345C87.3487 36.3979 86.9932 36.6493 84.7014 36.6398L83.6789 36.6356C81.1051 36.6251 80.9647 36.5683 80.6526 36.1176L75.1372 28.3148L74.1048 29.1532L74.0253 35.9781C74.0208 36.3713 73.3835 36.5934 71.1269 36.5841L70.7744 36.5827C68.3768 36.5728 67.9906 36.4308 67.9962 35.9533L68.217 16.9953C68.2226 16.5178 68.6124 16.3509 71.01 16.3608Z" fill="white"/>
<path d="M127.318 16.1895H131.971C136.126 16.1895 138.861 16.5838 140.708 18.1048C141.88 19.1187 142.591 20.5271 142.591 22.2734C142.591 24.8083 141.099 26.8363 138.257 27.963L138.932 28.9488C140.708 31.5401 142.413 33.5962 144.26 35.5679C144.793 36.1312 144.615 36.4692 142.52 36.4692H140.602C139.181 36.4692 138.613 36.441 138.044 35.9904C137.156 35.2299 135.771 33.3427 133.818 30.4416L132.752 28.8643H131.331V35.8495C131.331 36.3284 130.692 36.4692 128.419 36.4692H128.064C125.649 36.4692 125.258 36.3284 125.258 35.8495V16.8373C125.258 16.274 125.506 16.1895 127.318 16.1895ZM131.331 19.8229V25.2872H132.503C133.782 25.2872 134.635 25.1463 135.309 24.6957C136.02 24.245 136.375 23.4564 136.375 22.3297C136.375 21.4002 136.091 20.7806 135.523 20.3862C134.883 19.9637 134.137 19.8229 132.468 19.8229H131.331Z" fill="white"/>
<path d="M234.8 19.9938H229.431C228.72 19.9938 228.613 19.853 228.613 18.2475V18.0503C228.613 16.473 228.72 16.3604 229.431 16.3604H246.286C246.997 16.3604 247.104 16.473 247.104 18.0503V18.2475C247.104 19.853 246.997 19.9938 246.286 19.9938H240.881V36.0204C240.881 36.4993 240.276 36.6401 238.001 36.6401H237.61C235.227 36.6401 234.8 36.4993 234.8 36.0204V19.9938Z" fill="white"/>
<path d="M212.392 16.3604H216.584C220.775 16.3604 223.616 16.7265 225.605 18.2757C226.919 19.346 227.594 20.8951 227.594 22.8386C227.594 24.7257 226.777 26.4439 225.25 27.7114C223.758 28.9225 221.13 29.6549 217.791 29.6549C217.365 29.6549 216.832 29.6549 216.371 29.6267V36.0204C216.371 36.4993 215.767 36.6401 213.494 36.6401H213.103C210.723 36.6401 210.297 36.4993 210.297 36.0204V17.0082C210.297 16.4449 210.581 16.3604 212.392 16.3604ZM216.371 19.9938V25.9932C216.69 26.0214 217.258 26.0214 217.543 26.0214C219.034 26.0214 219.958 25.7679 220.633 25.1201C221.201 24.5849 221.379 23.8244 221.379 22.8386C221.379 22.0218 221.13 21.374 220.704 20.9233C220.064 20.2755 219.141 19.9938 217.187 19.9938H216.371Z" fill="white"/>
<path d="M194.587 19.4182L194.126 20.0312C193.381 21.0065 193.026 21.2294 192.494 20.9508C191.004 20.1984 189.833 19.7804 188.166 19.7804C184.654 19.7804 182.419 22.0654 182.419 26.4124C182.419 30.4808 184.335 32.8494 188.06 32.8494C189.585 32.8494 191.217 32.5429 192.813 31.8462C193.452 31.5676 193.665 31.7069 194.303 32.8494L194.658 33.4903C195.226 34.4935 195.332 34.7443 194.729 35.0508C192.671 36.054 190.33 36.6391 187.315 36.6391C180.22 36.6391 176.211 32.7937 176.211 26.5239C176.211 20.2541 180.503 16.0186 187.669 16.0186C190.649 16.0186 193.097 16.6595 194.942 17.7741C195.509 18.1085 195.403 18.3314 194.587 19.4182Z" fill="white"/>
<path d="M97.2458 33.4573H99.3826C99.8812 33.4573 99.9524 33.57 99.9524 34.922V35.0628C99.9524 36.5274 99.8812 36.6401 99.3826 36.6401H89.019C88.5204 36.6401 88.4492 36.5274 88.4492 35.0628V34.922C88.4492 33.57 88.5204 33.4573 89.019 33.4573H91.1559V19.5431H89.019C88.5204 19.5431 88.4492 19.4305 88.4492 18.0785V17.9377C88.4492 16.473 88.5204 16.3604 89.019 16.3604H99.3826C99.8812 16.3604 99.9524 16.4449 99.9524 17.9095V18.0503C99.9524 19.4023 99.8812 19.5431 99.3826 19.5431H97.2458V33.4573Z" fill="white"/>
<path d="M205.117 33.4573H207.254C207.752 33.4573 207.824 33.57 207.824 34.922V35.0628C207.824 36.5274 207.752 36.6401 207.254 36.6401H196.89C196.392 36.6401 196.32 36.5274 196.32 35.0628V34.922C196.32 33.57 196.392 33.4573 196.89 33.4573H199.027V19.5431H196.89C196.392 19.5431 196.32 19.4305 196.32 18.0785V17.9377C196.32 16.473 196.392 16.3604 196.89 16.3604H207.254C207.752 16.3604 207.824 16.4449 207.824 17.9095V18.0503C207.824 19.4023 207.752 19.5431 207.254 19.5431H205.117V33.4573Z" fill="white"/>
<path d="M112.356 16.1895H112.64C114.879 16.1895 115.305 16.3021 115.519 16.7809L124.083 35.6805C124.331 36.2157 123.976 36.4692 121.453 36.4692H121.027C118.681 36.4692 118.077 36.272 117.9 35.8495L115.981 31.4274H108.838L106.99 35.8495C106.812 36.272 106.351 36.4692 103.97 36.4692H103.543C101.127 36.4692 100.771 36.3002 101.056 35.7087L109.513 16.7809C109.726 16.3021 110.117 16.1895 112.356 16.1895ZM110.792 26.7237L110.295 27.963H114.524L114.097 26.7237C113.6 25.2308 113.138 23.6254 112.498 21.0341C111.894 23.6254 111.397 25.2308 110.792 26.7237Z" fill="white"/>
<path d="M156.919 16.3604H157.203C159.442 16.3604 159.868 16.473 160.081 16.9518L168.645 35.8514C168.894 36.3866 168.539 36.6401 166.016 36.6401H165.589C163.244 36.6401 162.64 36.4429 162.462 36.0204L160.543 31.5983H153.401L151.553 36.0204C151.375 36.4429 150.913 36.6401 148.532 36.6401H148.106C145.689 36.6401 145.334 36.4711 145.618 35.8796L154.076 16.9518C154.289 16.473 154.68 16.3604 156.919 16.3604ZM155.355 26.8946L154.857 28.1339H159.086L158.66 26.8946C158.162 25.4017 157.7 23.7963 157.061 21.205C156.457 23.7963 155.959 25.4017 155.355 26.8946Z" fill="white"/>
<path d="M254.313 16.3604H254.597C256.836 16.3604 257.262 16.473 257.476 16.9518L266.04 35.8514C266.288 36.3866 265.933 36.6401 263.41 36.6401H262.984C260.638 36.6401 260.034 36.4429 259.857 36.0204L257.938 31.5983H250.795L248.947 36.0204C248.77 36.4429 248.308 36.6401 245.927 36.6401H245.5C243.084 36.6401 242.729 36.4711 243.013 35.8796L251.47 16.9518C251.683 16.473 252.074 16.3604 254.313 16.3604ZM252.749 26.8946L252.252 28.1339H256.481L256.054 26.8946C255.557 25.4017 255.095 23.7963 254.455 21.205C253.851 23.7963 253.354 25.4017 252.749 26.8946Z" fill="white"/>
</svg>
