<svg width="93" height="73" viewBox="0 0 93 73" fill="none" xmlns="http://www.w3.org/2000/svg">
<path d="M2 2H82.8061V71H2V28.2358H57.8821V11.1821H2V2Z" stroke="white" stroke-width="3" stroke-miterlimit="10" stroke-linecap="round"/>
<path d="M70.6734 20.6222C73.028 20.6222 74.9367 18.7135 74.9367 16.359C74.9367 14.0044 73.028 12.0957 70.6734 12.0957C68.3189 12.0957 66.4102 14.0044 66.4102 16.359C66.4102 18.7135 68.3189 20.6222 70.6734 20.6222Z" stroke="white" stroke-width="3" stroke-miterlimit="10" stroke-linecap="round"/>
<path d="M49.4883 11.1836V28.2372" stroke="white" stroke-width="3" stroke-miterlimit="10" stroke-linecap="round"/>
<path d="M9.34766 28.2363V71.0006" stroke="white" stroke-width="3" stroke-miterlimit="10" stroke-linecap="round"/>
<path d="M9.34766 11.1821V2" stroke="white" stroke-width="3" stroke-miterlimit="10" stroke-linecap="round"/>
<path d="M82.8086 8.42969H91.4667V31.911H82.8086" stroke="white" stroke-width="3" stroke-miterlimit="10" stroke-linecap="round"/>
<path d="M55.3906 55.5208C56.0682 53.9397 58.0666 49.8651 62.6698 46.9835C68.3515 43.4261 74.0875 44.1393 75.6098 44.3776" stroke="white" stroke-width="3" stroke-linecap="square" stroke-linejoin="bevel"/>
<path d="M59.9922 57.3474C60.4823 56.301 62.1741 53.0299 66.0675 51.023C70.2754 48.8536 74.2338 49.6153 75.3044 49.8576" stroke="white" stroke-width="3" stroke-linecap="square" stroke-linejoin="bevel"/>
<path d="M65.875 58.8878C66.0709 58.361 66.7892 56.6292 68.6848 55.4998C70.9378 54.161 73.196 54.6658 73.6539 54.7793" stroke="white" stroke-width="3" stroke-linecap="square" stroke-linejoin="bevel"/>
</svg>
