<svg width="117" height="117" viewBox="0 0 117 117" fill="none" xmlns="http://www.w3.org/2000/svg">
<g filter="url(#filter0_d_1516_181)">
<rect x="30.6836" y="30.8594" width="55.4362" height="55.4362" rx="27.7181" fill="#E02D3C" shape-rendering="crispEdges"/>
<path d="M66.8535 64.5469H62.0195V78.9844H55.5742V64.5469H50.2891V58.6172H55.5742V54.041C55.5742 48.8848 58.668 45.9844 63.373 45.9844C65.6289 45.9844 68.0137 46.4355 68.0137 46.4355V51.5273H65.3711C62.793 51.5273 62.0195 53.0742 62.0195 54.75V58.6172H67.7559L66.8535 64.5469Z" fill="white"/>
</g>
<defs>
<filter id="filter0_d_1516_181" x="0.683594" y="0.859375" width="115.438" height="115.437" filterUnits="userSpaceOnUse" color-interpolation-filters="sRGB">
<feFlood flood-opacity="0" result="BackgroundImageFix"/>
<feColorMatrix in="SourceAlpha" type="matrix" values="0 0 0 0 0 0 0 0 0 0 0 0 0 0 0 0 0 0 127 0" result="hardAlpha"/>
<feOffset/>
<feGaussianBlur stdDeviation="15"/>
<feComposite in2="hardAlpha" operator="out"/>
<feColorMatrix type="matrix" values="0 0 0 0 0 0 0 0 0 0.101961 0 0 0 0 0.392157 0 0 0 0.06 0"/>
<feBlend mode="normal" in2="BackgroundImageFix" result="effect1_dropShadow_1516_181"/>
<feBlend mode="normal" in="SourceGraphic" in2="effect1_dropShadow_1516_181" result="shape"/>
</filter>
</defs>
</svg>
