<svg width="117" height="116" viewBox="0 0 117 116" fill="none" xmlns="http://www.w3.org/2000/svg">
<g filter="url(#filter0_d_1516_183)">
<rect x="30.6836" y="30.2344" width="55.4362" height="55.4362" rx="27.7181" fill="#E02D3C" shape-rendering="crispEdges"/>
<path d="M53.1432 45.4355H63.6582C67.6639 45.4355 70.9185 48.6902 70.9185 52.6959V63.2109C70.9185 65.1365 70.1536 66.9832 68.792 68.3448C67.4304 69.7063 65.5837 70.4713 63.6582 70.4713H53.1432C49.1375 70.4713 45.8828 67.2166 45.8828 63.2109V52.6959C45.8828 50.7703 46.6477 48.9236 48.0093 47.5621C49.3709 46.2005 51.2176 45.4355 53.1432 45.4355ZM52.8928 47.9391C51.6976 47.9391 50.5514 48.4139 49.7063 49.259C48.8612 50.1041 48.3864 51.2504 48.3864 52.4455V63.4613C48.3864 65.9523 50.4018 67.9677 52.8928 67.9677H63.9085C65.1037 67.9677 66.2499 67.4929 67.0951 66.6478C67.9402 65.8027 68.415 64.6564 68.415 63.4613V52.4455C68.415 49.9545 66.3996 47.9391 63.9085 47.9391H52.8928ZM64.9725 49.8168C65.3875 49.8168 65.7855 49.9817 66.079 50.2751C66.3724 50.5685 66.5373 50.9665 66.5373 51.3815C66.5373 51.7965 66.3724 52.1945 66.079 52.488C65.7855 52.7814 65.3875 52.9463 64.9725 52.9463C64.5576 52.9463 64.1596 52.7814 63.8661 52.488C63.5727 52.1945 63.4078 51.7965 63.4078 51.3815C63.4078 50.9665 63.5727 50.5685 63.8661 50.2751C64.1596 49.9817 64.5576 49.8168 64.9725 49.8168ZM58.4007 51.6945C60.0606 51.6945 61.6526 52.3539 62.8264 53.5277C64.0002 54.7015 64.6596 56.2934 64.6596 57.9534C64.6596 59.6134 64.0002 61.2054 62.8264 62.3791C61.6526 63.5529 60.0606 64.2123 58.4007 64.2123C56.7407 64.2123 55.1487 63.5529 53.9749 62.3791C52.8012 61.2054 52.1417 59.6134 52.1417 57.9534C52.1417 56.2934 52.8012 54.7015 53.9749 53.5277C55.1487 52.3539 56.7407 51.6945 58.4007 51.6945ZM58.4007 54.198C57.4047 54.198 56.4495 54.5937 55.7452 55.298C55.041 56.0022 54.6453 56.9574 54.6453 57.9534C54.6453 58.9494 55.041 59.9046 55.7452 60.6088C56.4495 61.3131 57.4047 61.7088 58.4007 61.7088C59.3967 61.7088 60.3518 61.3131 61.0561 60.6088C61.7604 59.9046 62.156 58.9494 62.156 57.9534C62.156 56.9574 61.7604 56.0022 61.0561 55.298C60.3518 54.5937 59.3967 54.198 58.4007 54.198Z" fill="white"/>
</g>
<defs>
<filter id="filter0_d_1516_183" x="0.683594" y="0.234375" width="115.438" height="115.437" filterUnits="userSpaceOnUse" color-interpolation-filters="sRGB">
<feFlood flood-opacity="0" result="BackgroundImageFix"/>
<feColorMatrix in="SourceAlpha" type="matrix" values="0 0 0 0 0 0 0 0 0 0 0 0 0 0 0 0 0 0 127 0" result="hardAlpha"/>
<feOffset/>
<feGaussianBlur stdDeviation="15"/>
<feComposite in2="hardAlpha" operator="out"/>
<feColorMatrix type="matrix" values="0 0 0 0 0 0 0 0 0 0.101961 0 0 0 0 0.392157 0 0 0 0.06 0"/>
<feBlend mode="normal" in2="BackgroundImageFix" result="effect1_dropShadow_1516_183"/>
<feBlend mode="normal" in="SourceGraphic" in2="effect1_dropShadow_1516_183" result="shape"/>
</filter>
</defs>
</svg>
