<svg width="41" height="40" viewBox="0 0 41 40" fill="none" xmlns="http://www.w3.org/2000/svg">
<path d="M37.5292 23.3161C38.5197 22.0324 39.2304 20.5311 39.6104 18.9202C39.8937 17.7051 40.3233 15.8594 39.6104 13.8266C38.8974 11.7937 37.0435 9.54901 34.3087 9.22665C31.4961 8.89357 29.505 10.8047 29.1904 11.118C28.809 10.719 26.9593 8.8637 24.3225 9.00798C20.5792 9.21199 18.8016 13.2489 18.6088 13.7178C16.7549 18.2219 19.709 22.6488 19.8959 22.9187L29.3704 33L33.261 28.8605" stroke="white" stroke-width="2" stroke-miterlimit="10"/>
<path d="M6.05452 17.0858C9.61575 12.6774 13.1773 8.26856 16.7392 3.85938C17.1775 4.00035 18.0992 4.37972 18.5677 5.3631C19.0001 6.2697 18.8332 7.24162 18.7123 7.86913C18.0819 11.1459 16.7749 15.0898 16.3539 16.3339H31.2389C32.2755 16.8949 32.9951 17.9746 33.0367 19.1253C33.0931 20.6887 31.8807 21.9036 31.6609 22.1242L19.2675 22.1465V22.542L27.2615 22.5666C28.3015 22.7792 29.0444 23.8445 29.0137 25.0337C28.9939 25.5927 28.8092 26.1269 28.4904 26.5476C28.1716 26.9682 27.7379 27.2498 27.2615 27.3454L27.57 27.3592H19.2883V27.695L27.262 27.7523C27.7099 27.9034 28.1033 28.2186 28.3832 28.6506C28.663 29.0826 28.8141 29.608 28.8138 30.1479C28.8134 30.6877 28.6617 31.2129 28.3813 31.6444C28.1009 32.0759 27.7071 32.3905 27.259 32.5408L19.2853 32.4514L19.3032 32.8486L25.115 32.9322C25.1933 33.0033 26.2502 33.9993 26.1258 35.605C26.0149 37.0377 25.0561 37.789 24.9342 37.8813L5.82422 37.8188L6.05452 17.0858Z" fill="#46BEEE" stroke="white" stroke-width="2" stroke-miterlimit="10"/>
<path d="M5.82183 16.834H1V38.9991H5.82183V16.834Z" stroke="white" stroke-width="2" stroke-miterlimit="10"/>
<path d="M29.2812 0V5.59715" stroke="white" stroke-width="2" stroke-miterlimit="10"/>
<path d="M22.5469 1.64258L24.2431 5.47869" stroke="white" stroke-width="2" stroke-miterlimit="10"/>
</svg>
